all_script/scripts/watchver/stopwatch.vcd
$date
	Thu Mar 11 14:01:36 2004
$end
$version
	ModelSim Version 5.8b
$end
$timescale
	1ps
$end
$scope module testbench $end
$scope module UUT $end
$var wire 1 ! RESET $end
$var wire 1 " STRTSTOP $end
$var wire 1 # CLK $end
$var wire 1 $ TENSOUT [6] $end
$var wire 1 % TENSOUT [5] $end
$var wire 1 & TENSOUT [4] $end
$var wire 1 ' TENSOUT [3] $end
$var wire 1 ( TENSOUT [2] $end
$var wire 1 ) TENSOUT [1] $end
$var wire 1 * TENSOUT [0] $end
$var wire 1 + ONESOUT [6] $end
$var wire 1 , ONESOUT [5] $end
$var wire 1 - ONESOUT [4] $end
$var wire 1 . ONESOUT [3] $end
$var wire 1 / ONESOUT [2] $end
$var wire 1 0 ONESOUT [1] $end
$var wire 1 1 ONESOUT [0] $end
$var wire 1 2 TENTHSOUT [9] $end
$var wire 1 3 TENTHSOUT [8] $end
$var wire 1 4 TENTHSOUT [7] $end
$var wire 1 5 TENTHSOUT [6] $end
$var wire 1 6 TENTHSOUT [5] $end
$var wire 1 7 TENTHSOUT [4] $end
$var wire 1 8 TENTHSOUT [3] $end
$var wire 1 9 TENTHSOUT [2] $end
$var wire 1 : TENTHSOUT [1] $end
$var wire 1 ; TENTHSOUT [0] $end
$var wire 1 < MACHINE_current_state_FFd3 $end
$var wire 1 = clk_dcm $end
$var wire 1 > MACHINE_current_state_FFd6 $end
$var wire 1 ? xcounter/N5 $end
$var wire 1 @ xcounter/N4 $end
$var wire 1 A xcounter/N3 $end
$var wire 1 B xcounter/N2 $end
$var wire 1 C xcounter/N6 $end
$var wire 1 D xcounter/N58 $end
$var wire 1 E xcounter/N7 $end
$var wire 1 F xcounter/N106 $end
$var wire 1 G xcounter/N119 $end
$var wire 1 H xcounter/N122 $end
$var wire 1 I xcounter/N132 $end
$var wire 1 J xcounter/N165 $end
$var wire 1 K xcounter/N182 $end
$var wire 1 L xcounter/N199 $end
$var wire 1 M xcounter/N216 $end
$var wire 1 N xtermcnt $end
$var wire 1 O GLOBAL_LOGIC0 $end
$var wire 1 P TENTHSOUT_2_OBUF $end
$var wire 1 Q TENTHSOUT_0_OBUF $end
$var wire 1 R TENTHSOUT_1_OBUF $end
$var wire 1 S TENTHSOUT_3_OBUF $end
$var wire 1 T TENTHSOUT_4_OBUF $end
$var wire 1 U TENTHSOUT_5_OBUF $end
$var wire 1 V TENTHSOUT_6_OBUF $end
$var wire 1 W TENTHSOUT_7_OBUF $end
$var wire 1 X TENSOUT_0_OBUF $end
$var wire 1 Y TENTHSOUT_8_OBUF $end
$var wire 1 Z TENSOUT_1_OBUF $end
$var wire 1 [ TENTHSOUT_9_OBUF $end
$var wire 1 \ TENSOUT_2_OBUF $end
$var wire 1 ] ONESOUT_0_OBUF $end
$var wire 1 ^ TENSOUT_3_OBUF $end
$var wire 1 _ ONESOUT_1_OBUF $end
$var wire 1 ` TENSOUT_4_OBUF $end
$var wire 1 a ONESOUT_2_OBUF $end
$var wire 1 b TENSOUT_5_OBUF $end
$var wire 1 c TENSOUT_6_OBUF $end
$var wire 1 d ONESOUT_3_OBUF $end
$var wire 1 e ONESOUT_4_OBUF $end
$var wire 1 f ONESOUT_5_OBUF $end
$var wire 1 g ONESOUT_6_OBUF $end
$var wire 1 h Inst_dcm1_CLKIN_IBUFG_OUT $end
$var wire 1 i RESET_IBUF $end
$var wire 1 j STRTSTOP_IBUF $end
$var wire 1 k dcm_lock $end
$var wire 1 l Inst_dcm1_CLK0_BUF $end
$var wire 1 m GLOBAL_LOGIC1 $end
$var wire 1 n sixty_msbce_SW0/O $end
$var wire 1 o sixty_msbce $end
$var wire 1 p cnt60enable $end
$var wire 1 q sixty_msbclr $end
$var wire 1 r MACHINE_current_state_FFd2 $end
$var wire 1 s MACHINE_current_state_FFd1 $end
$var wire 1 t MACHINE_current_state_FFd2-In $end
$var wire 1 u MACHINE_current_state_FFd1-In $end
$var wire 1 v MACHINE_current_state_FFd4 $end
$var wire 1 w MACHINE_current_state_FFd3-In $end
$var wire 1 x MACHINE_current_state_FFd5 $end
$var wire 1 y MACHINE_current_state_FFd5-In $end
$var wire 1 z N1455 $end
$var wire 1 { N1561 $end
$var wire 1 | MACHINE_current_state_FFd4-In $end
$var wire 1 } GLOBAL_LOGIC1_0 $end
$var wire 1 ~ GLOBAL_LOGIC1_1 $end
$var wire 1 !! GLOBAL_LOGIC1_2 $end
$var wire 1 "! GSR $end
$var wire 1 #! GTS $end
$var wire 1 $! xcounter/N6/DXMUX $end
$var wire 1 %! xcounter/N6/F $end
$var wire 1 &! xcounter/N6/G $end
$var wire 1 '! xcounter/N6/CLKINV $end
$var wire 1 (! xcounter/N6/CEINV $end
$var wire 1 )! xtermcnt/DYMUX $end
$var wire 1 *! xtermcnt/G $end
$var wire 1 +! xtermcnt/CLKINV $end
$var wire 1 ,! xtermcnt/CEINV $end
$var wire 1 -! xcounter/N2/XORF $end
$var wire 1 .! xcounter/N2/CYINIT $end
$var wire 1 /! xcounter/N2/CY0F $end
$var wire 1 0! xcounter/N2/CYSELF $end
$var wire 1 1! xcounter/N120 $end
$var wire 1 2! xcounter/N2/BXINVNOT $end
$var wire 1 3! xcounter/N2/CYMUXG $end
$var wire 1 4! xcounter/N2/LOGIC_ONE $end
$var wire 1 5! xcounter/N122_rt $end
$var wire 1 6! xcounter/N2/G $end
$var wire 1 7! xcounter/N3/XORF $end
$var wire 1 8! xcounter/N3/CYINIT $end
$var wire 1 9! xcounter/N3/CY0F $end
$var wire 1 :! xcounter/N125 $end
$var wire 1 ;! xcounter/N3/XORG $end
$var wire 1 <! xcounter/N127 $end
$var wire 1 =! xcounter/N3/CYSELF $end
$var wire 1 >! xcounter/N3/CYMUXFAST $end
$var wire 1 ?! xcounter/N3/CYAND $end
$var wire 1 @! xcounter/N3/FASTCARRY $end
$var wire 1 A! xcounter/N3/CYMUXG2 $end
$var wire 1 B! xcounter/N3/CYMUXF2 $end
$var wire 1 C! xcounter/N3/CY0G $end
$var wire 1 D! xcounter/N3/CYSELG $end
$var wire 1 E! xcounter/N130 $end
$var wire 1 F! xcounter/N5/XORF $end
$var wire 1 G! xcounter/N5/CYINIT $end
$var wire 1 H! xcounter/N135 $end
$var wire 1 I! xcounter/N5/G $end
$var wire 1 J! Q<0>/DYMUX $end
$var wire 1 K! Q<0>/G $end
$var wire 1 L! Q<0>/SRFFMUX $end
$var wire 1 M! Q<0>/CLKINV $end
$var wire 1 N! Q<0>/CEINV $end
$var wire 1 O! Q<1>/DXMUX $end
$var wire 1 P! Q<1>/F $end
$var wire 1 Q! Q<1>/DYMUX $end
$var wire 1 R! Q<1>/G $end
$var wire 1 S! Q<1>/SRFFMUX $end
$var wire 1 T! Q<1>/CLKINV $end
$var wire 1 U! Q<1>/CEINV $end
$var wire 1 V! Q<3>/DYMUX $end
$var wire 1 W! Q<3>/G $end
$var wire 1 X! Q<3>/CLKINV $end
$var wire 1 Y! Q<3>/CEINV $end
$var wire 1 Z! TENTHSOUT<0>/ENABLE $end
$var wire 1 [! TENTHSOUT<0>/GTS_OR_T $end
$var wire 1 \! TENTHSOUT<0>/O $end
$var wire 1 ]! TENTHSOUT<1>/ENABLE $end
$var wire 1 ^! TENTHSOUT<1>/GTS_OR_T $end
$var wire 1 _! TENTHSOUT<1>/O $end
$var wire 1 `! xcounter/N6/FFX/RST $end
$var wire 1 a! xcounter/N6/FFX/RSTAND $end
$var wire 1 b! TENTHSOUT<2>/ENABLE $end
$var wire 1 c! TENTHSOUT<2>/GTS_OR_T $end
$var wire 1 d! TENTHSOUT<2>/O $end
$var wire 1 e! TENTHSOUT<3>/ENABLE $end
$var wire 1 f! TENTHSOUT<3>/GTS_OR_T $end
$var wire 1 g! TENTHSOUT<3>/O $end
$var wire 1 h! TENTHSOUT<4>/ENABLE $end
$var wire 1 i! TENTHSOUT<4>/GTS_OR_T $end
$var wire 1 j! TENTHSOUT<4>/O $end
$var wire 1 k! TENTHSOUT<5>/ENABLE $end
$var wire 1 l! TENTHSOUT<5>/GTS_OR_T $end
$var wire 1 m! TENTHSOUT<5>/O $end
$var wire 1 n! TENTHSOUT<6>/ENABLE $end
$var wire 1 o! TENTHSOUT<6>/GTS_OR_T $end
$var wire 1 p! TENTHSOUT<6>/O $end
$var wire 1 q! TENTHSOUT<7>/ENABLE $end
$var wire 1 r! TENTHSOUT<7>/GTS_OR_T $end
$var wire 1 s! TENTHSOUT<7>/O $end
$var wire 1 t! TENSOUT<0>/ENABLE $end
$var wire 1 u! TENSOUT<0>/GTS_OR_T $end
$var wire 1 v! TENSOUT<0>/O $end
$var wire 1 w! TENTHSOUT<8>/ENABLE $end
$var wire 1 x! TENTHSOUT<8>/GTS_OR_T $end
$var wire 1 y! TENTHSOUT<8>/O $end
$var wire 1 z! TENSOUT<1>/ENABLE $end
$var wire 1 {! TENSOUT<1>/GTS_OR_T $end
$var wire 1 |! TENSOUT<1>/O $end
$var wire 1 }! TENTHSOUT<9>/ENABLE $end
$var wire 1 ~! TENTHSOUT<9>/GTS_OR_T $end
$var wire 1 !" TENTHSOUT<9>/O $end
$var wire 1 "" TENSOUT<2>/ENABLE $end
$var wire 1 #" TENSOUT<2>/GTS_OR_T $end
$var wire 1 $" TENSOUT<2>/O $end
$var wire 1 %" ONESOUT<0>/ENABLE $end
$var wire 1 &" ONESOUT<0>/GTS_OR_T $end
$var wire 1 '" ONESOUT<0>/O $end
$var wire 1 (" TENSOUT<3>/ENABLE $end
$var wire 1 )" TENSOUT<3>/GTS_OR_T $end
$var wire 1 *" TENSOUT<3>/O $end
$var wire 1 +" ONESOUT<1>/ENABLE $end
$var wire 1 ," ONESOUT<1>/GTS_OR_T $end
$var wire 1 -" ONESOUT<1>/O $end
$var wire 1 ." TENSOUT<4>/ENABLE $end
$var wire 1 /" TENSOUT<4>/GTS_OR_T $end
$var wire 1 0" TENSOUT<4>/O $end
$var wire 1 1" ONESOUT<2>/ENABLE $end
$var wire 1 2" ONESOUT<2>/GTS_OR_T $end
$var wire 1 3" ONESOUT<2>/O $end
$var wire 1 4" TENSOUT<5>/ENABLE $end
$var wire 1 5" TENSOUT<5>/GTS_OR_T $end
$var wire 1 6" TENSOUT<5>/O $end
$var wire 1 7" xtermcnt/FFY/RST $end
$var wire 1 8" TENSOUT<6>/ENABLE $end
$var wire 1 9" TENSOUT<6>/GTS_OR_T $end
$var wire 1 :" TENSOUT<6>/O $end
$var wire 1 ;" ONESOUT<3>/ENABLE $end
$var wire 1 <" ONESOUT<3>/GTS_OR_T $end
$var wire 1 =" ONESOUT<3>/O $end
$var wire 1 >" ONESOUT<4>/ENABLE $end
$var wire 1 ?" ONESOUT<4>/GTS_OR_T $end
$var wire 1 @" ONESOUT<4>/O $end
$var wire 1 A" ONESOUT<5>/ENABLE $end
$var wire 1 B" ONESOUT<5>/GTS_OR_T $end
$var wire 1 C" ONESOUT<5>/O $end
$var wire 1 D" ONESOUT<6>/ENABLE $end
$var wire 1 E" ONESOUT<6>/GTS_OR_T $end
$var wire 1 F" ONESOUT<6>/O $end
$var wire 1 G" CLK/INBUF $end
$var wire 1 H" RESET/INBUF $end
$var wire 1 I" STRTSTOP/INBUF $end
$var wire 1 J" Inst_dcm1_DCM_INST/STATUS0 $end
$var wire 1 K" Inst_dcm1_DCM_INST/STATUS1 $end
$var wire 1 L" Inst_dcm1_DCM_INST/STATUS2 $end
$var wire 1 M" Inst_dcm1_DCM_INST/STATUS3 $end
$var wire 1 N" Inst_dcm1_DCM_INST/STATUS4 $end
$var wire 1 O" Inst_dcm1_DCM_INST/STATUS5 $end
$var wire 1 P" Inst_dcm1_DCM_INST/STATUS6 $end
$var wire 1 Q" Inst_dcm1_DCM_INST/STATUS7 $end
$var wire 1 R" Inst_dcm1_DCM_INST/PSDONE $end
$var wire 1 S" Inst_dcm1_DCM_INST/CLKFX180 $end
$var wire 1 T" Inst_dcm1_DCM_INST/CLKFX $end
$var wire 1 U" Inst_dcm1_DCM_INST/CLKDV $end
$var wire 1 V" Inst_dcm1_DCM_INST/CLK2X180 $end
$var wire 1 W" Inst_dcm1_DCM_INST/CLK2X $end
$var wire 1 X" Inst_dcm1_DCM_INST/CLK270 $end
$var wire 1 Y" Inst_dcm1_DCM_INST/CLK180 $end
$var wire 1 Z" Inst_dcm1_DCM_INST/CLK90 $end
$var wire 1 [" Inst_dcm1_DCM_INST/PSCLKINVNOT $end
$var wire 1 \" Inst_dcm1_DCM_INST/PSENINVNOT $end
$var wire 1 ]" Inst_dcm1_DCM_INST/PSINCDECINVNOT $end
$var wire 1 ^" Inst_dcm1_DCM_INST/DSSENINVNOT $end
$var wire 1 _" Inst_dcm1_DCM_INST/CLKFB_BUF $end
$var wire 1 `" Inst_dcm1_DCM_INST/CLKIN_BUF $end
$var wire 1 a" Inst_dcm1_CLK0_BUFG_INST/S_INVNOT $end
$var wire 1 b" sixty_msbce/F $end
$var wire 1 c" sixty_msbce/G $end
$var wire 1 d" sixty_lsbcount_QOUT<3>/DXMUX $end
$var wire 1 e" sixty_lsbcount_QOUT<3>/F $end
$var wire 1 f" sixty_lsbcount_QOUT<3>/DYMUX $end
$var wire 1 g" sixty_lsbcount_QOUT<3>/G $end
$var wire 1 h" sixty_lsbcount_QOUT<3>/SRFFMUX $end
$var wire 1 i" sixty_lsbcount_QOUT<3>/CLKINV $end
$var wire 1 j" sixty_lsbcount_QOUT<3>/CEINV $end
$var wire 1 k" sixty_msbcount_QOUT<3>/DXMUX $end
$var wire 1 l" sixty_msbcount_QOUT<3>/F $end
$var wire 1 m" sixty_msbcount_QOUT<3>/DYMUX $end
$var wire 1 n" sixty_msbcount_QOUT<3>/G $end
$var wire 1 o" sixty_msbcount_QOUT<3>/SRFFMUX $end
$var wire 1 p" sixty_msbcount_QOUT<3>/CLKINV $end
$var wire 1 q" sixty_msbcount_QOUT<3>/CEINV $end
$var wire 1 r" MACHINE_current_state_FFd2/DXMUX $end
$var wire 1 s" MACHINE_current_state_FFd2/F $end
$var wire 1 t" MACHINE_current_state_FFd2/DYMUX $end
$var wire 1 u" MACHINE_current_state_FFd2/G $end
$var wire 1 v" MACHINE_current_state_FFd2/SRFFMUX $end
$var wire 1 w" MACHINE_current_state_FFd2/CLKINV $end
$var wire 1 x" MACHINE_current_state_FFd3/F $end
$var wire 1 y" MACHINE_current_state_FFd3/DYMUX $end
$var wire 1 z" MACHINE_current_state_FFd3/G $end
$var wire 1 {" MACHINE_current_state_FFd3/CLKINV $end
$var wire 1 |" MACHINE_current_state_FFd6/DXMUX $end
$var wire 1 }" MACHINE_current_state_FFd6/BXINVNOT $end
$var wire 1 ~" MACHINE_current_state_FFd6/DYMUX $end
$var wire 1 !# MACHINE_current_state_FFd6/G $end
$var wire 1 "# MACHINE_current_state_FFd6/SRFFMUX $end
$var wire 1 ## MACHINE_current_state_FFd6/CLKINV $end
$var wire 1 $# TENTHSOUT_3_OBUF/F $end
$var wire 1 %# TENTHSOUT_3_OBUF/G $end
$var wire 1 &# TENTHSOUT_4_OBUF/F $end
$var wire 1 '# TENTHSOUT_4_OBUF/G $end
$var wire 1 (# sixty_lsbcount_QOUT<0>/DXMUX $end
$var wire 1 )# sixty_lsbcount_QOUT<0>/F $end
$var wire 1 *# sixty_lsbcount_QOUT<0>/BXINVNOT $end
$var wire 1 +# sixty_lsbcount_QOUT<0>/DYMUX $end
$var wire 1 ,# sixty_lsbcount_QOUT<0>/G $end
$var wire 1 -# sixty_lsbcount_QOUT<0>/SRFFMUX $end
$var wire 1 .# sixty_lsbcount_QOUT<0>/CLKINV $end
$var wire 1 /# sixty_lsbcount_QOUT<0>/CEINV $end
$var wire 1 0# TENSOUT_2_OBUF/F $end
$var wire 1 1# TENSOUT_2_OBUF/G $end
$var wire 1 2# TENSOUT_6_OBUF/F $end
$var wire 1 3# TENSOUT_6_OBUF/G $end
$var wire 1 4# TENSOUT_5_OBUF/F $end
$var wire 1 5# TENSOUT_5_OBUF/G $end
$var wire 1 6# sixty_msbcount_QOUT<1>/DXMUX $end
$var wire 1 7# sixty_msbcount_QOUT<1>/F $end
$var wire 1 8# sixty_msbcount_QOUT<1>/DYMUX $end
$var wire 1 9# sixty_msbcount_QOUT<1>/G $end
$var wire 1 :# sixty_msbcount_QOUT<1>/BYINVNOT $end
$var wire 1 ;# sixty_msbcount_QOUT<1>/SRFFMUX $end
$var wire 1 <# sixty_msbcount_QOUT<1>/CLKINV $end
$var wire 1 =# sixty_msbcount_QOUT<1>/CEINV $end
$var wire 1 ># sixty_msbclr/F $end
$var wire 1 ?# sixty_msbclr/G $end
$var wire 1 @# ONESOUT_2_OBUF/F $end
$var wire 1 A# ONESOUT_2_OBUF/G $end
$var wire 1 B# ONESOUT_6_OBUF/F $end
$var wire 1 C# ONESOUT_6_OBUF/G $end
$var wire 1 D# ONESOUT_5_OBUF/F $end
$var wire 1 E# ONESOUT_5_OBUF/G $end
$var wire 1 F# TENTHSOUT_5_OBUF/F $end
$var wire 1 G# TENTHSOUT_5_OBUF/G $end
$var wire 1 H# TENTHSOUT_6_OBUF/F $end
$var wire 1 I# TENTHSOUT_6_OBUF/G $end
$var wire 1 J# MACHINE_current_state_FFd4/DXMUX $end
$var wire 1 K# MACHINE_current_state_FFd4/F $end
$var wire 1 L# MACHINE_current_state_FFd4/G $end
$var wire 1 M# MACHINE_current_state_FFd4/CLKINV $end
$var wire 1 N# TENTHSOUT_7_OBUF/G $end
$var wire 1 O# sixty_lsbcount_QOUT<0>/FFY/RST $end
$var wire 1 P# sixty_lsbcount_QOUT<0>/FFX/RST $end
$var wire 1 Q# Q<0>/FFY/SET $end
$var wire 1 R# Q<1>/FFY/RST $end
$var wire 1 S# Q<1>/FFX/RST $end
$var wire 1 T# Q<3>/FFY/RST $end
$var wire 1 U# Q<3>/FFY/RSTAND $end
$var wire 1 V# MACHINE_current_state_FFd2/FFY/RST $end
$var wire 1 W# MACHINE_current_state_FFd2/FFX/RST $end
$var wire 1 X# MACHINE_current_state_FFd3/FFY/RST $end
$var wire 1 Y# MACHINE_current_state_FFd3/FFY/RSTAND $end
$var wire 1 Z# MACHINE_current_state_FFd6/FFY/RST $end
$var wire 1 [# MACHINE_current_state_FFd6/FFX/SET $end
$var wire 1 \# MACHINE_current_state_FFd4/FFX/RST $end
$var wire 1 ]# MACHINE_current_state_FFd4/FFX/RSTAND $end
$var wire 1 ^# sixty_lsbcount_QOUT<3>/FFY/RST $end
$var wire 1 _# sixty_lsbcount_QOUT<3>/FFX/RST $end
$var wire 1 `# sixty_msbcount_QOUT<3>/FFY/RST $end
$var wire 1 a# sixty_msbcount_QOUT<3>/FFX/RST $end
$var wire 1 b# sixty_msbcount_QOUT<1>/FFY/RST $end
$var wire 1 c# sixty_msbcount_QOUT<1>/FFX/RST $end
$var wire 1 d# VCC $end
$var wire 1 e# NLW_xcounter/N2/CYMUXG_IA_UNCONNECTED $end
$var wire 1 f# GND $end
$var wire 1 g# Q [3] $end
$var wire 1 h# Q [2] $end
$var wire 1 i# Q [1] $end
$var wire 1 j# Q [0] $end
$var wire 1 k# sixty_lsbcount_QOUT [3] $end
$var wire 1 l# sixty_lsbcount_QOUT [2] $end
$var wire 1 m# sixty_lsbcount_QOUT [1] $end
$var wire 1 n# sixty_lsbcount_QOUT [0] $end
$var wire 1 o# sixty_lsbcount_QOUT__n0001 [3] $end
$var wire 1 p# sixty_lsbcount_QOUT__n0001 [2] $end
$var wire 1 q# sixty_lsbcount_QOUT__n0001 [1] $end
$var wire 1 r# sixty_msbcount_QOUT [3] $end
$var wire 1 s# sixty_msbcount_QOUT [2] $end
$var wire 1 t# sixty_msbcount_QOUT [1] $end
$var wire 1 u# sixty_msbcount_QOUT [0] $end
$var wire 1 v# sixty_msbcount_QOUT__n0001 [3] $end
$var wire 1 w# sixty_msbcount_QOUT__n0001 [2] $end
$var wire 1 x# sixty_msbcount_QOUT__n0001 [1] $end
$upscope $end
$upscope $end
$enddefinitions $end
#0
$dumpvars
x1
x0
x/
x.
x-
x,
x+
x*
x)
x(
x'
x&
x%
x$
x;
x:
x9
x8
x7
x6
x5
x4
x3
x2
x<
x=
x>
x?
x@
xA
xB
xC
xD
xE
xF
xG
xH
xI
xJ
xK
xL
xM
xN
0O
xP
xQ
xR
xS
xT
xU
xV
xW
xX
xY
xZ
x[
x\
x]
x^
x_
x`
xa
xb
xc
xd
xe
xf
xg
xh
xi
xj
xk
0l
1m
xn
xo
xp
xq
xr
xs
xt
xu
xv
xw
xx
xy
xz
x{
x|
1}
1~
1!!
1"!
0#!
x$!
x%!
x&!
x'!
x(!
x)!
x*!
x+!
x,!
x-!
x.!
x/!
x0!
x1!
x2!
x3!
14!
x5!
x6!
x7!
x8!
x9!
x:!
x;!
x<!
x=!
x>!
x?!
x@!
xA!
xB!
xC!
xD!
xE!
xF!
xG!
xH!
xI!
xJ!
xK!
xL!
xM!
xN!
xO!
xP!
xQ!
xR!
xS!
xT!
xU!
xV!
xW!
xX!
xY!
xZ!
x[!
x\!
x]!
x^!
x_!
x`!
xa!
xb!
xc!
xd!
xe!
xf!
xg!
xh!
xi!
xj!
xk!
xl!
xm!
xn!
xo!
xp!
xq!
xr!
xs!
xt!
xu!
xv!
xw!
xx!
xy!
xz!
x{!
x|!
x}!
x~!
x!"
x""
x#"
x$"
x%"
x&"
x'"
x("
x)"
x*"
x+"
x,"
x-"
x."
x/"
x0"
x1"
x2"
x3"
x4"
x5"
x6"
x7"
x8"
x9"
x:"
x;"
x<"
x="
x>"
x?"
x@"
xA"
xB"
xC"
xD"
xE"
xF"
xG"
xH"
xI"
0J"
1K"
1L"
zM"
zN"
zO"
zP"
zQ"
xR"
1S"
0T"
0U"
0V"
0W"
0X"
0Y"
0Z"
0["
0\"
0]"
0^"
x_"
x`"
xa"
xb"
xc"
xd"
xe"
xf"
xg"
xh"
xi"
xj"
xk"
xl"
xm"
xn"
xo"
xp"
xq"
xr"
xs"
xt"
xu"
xv"
xw"
xx"
xy"
xz"
x{"
x|"
x}"
x~"
x!#
x"#
x##
x$#
x%#
x&#
x'#
x(#
x)#
x*#
x+#
x,#
x-#
x.#
x/#
x0#
x1#
x2#
x3#
x4#
x5#
x6#
x7#
x8#
x9#
x:#
x;#
x<#
x=#
x>#
x?#
x@#
xA#
xB#
xC#
xD#
xE#
xF#
xG#
xH#
xI#
xJ#
xK#
xL#
xM#
xN#
xO#
xP#
xQ#
xR#
xS#
xT#
xU#
xV#
xW#
xX#
xY#
xZ#
x[#
x\#
x]#
x^#
x_#
x`#
xa#
xb#
xc#
1d#
ze#
0f#
xj#
xi#
xh#
xg#
xn#
xm#
xl#
xk#
xq#
xp#
xo#
xu#
xt#
xs#
xr#
xx#
xw#
xv#
1"
1!
0#
$end
#10
0a"
#11
0k
0R"
#39
0}"
02!
#208
0|"
#305
0.!
#699
0=
#772
0G"
1I"
1H"
#832
0h
1j
1i
#1203
0`"
#1379
0+!
0'!
#1381
0T!
0M!
#1383
0X!
#1387
0.#
0i"
#1400
0M#
0##
0{"
0w"
#1401
0<#
0p"
#1603
1]#
1Y#
1\#
1X#
#1660
1"#
1v"
1[#
1Z#
1W#
1V#
#2195
0s"
#2214
0t
0r"
#2293
0K#
#2312
0|
0J#
#2650
0_"
#2677
0<
0v
#2734
0s
0r
0x
1>
#3208
0z"
#3216
0x"
#3235
0p
1!#
#3248
0w
0y"
#3275
1y
1~"
#3334
1>#
#3353
1q
#3401
1L#
#3408
1c"
#3441
1{
#3448
1n
#3552
0E"
0B"
0?"
0<"
09"
05"
02"
0/"
0,"
0)"
0&"
0#"
0~!
0{!
0x!
0u!
0r!
0o!
0l!
0i!
0f!
0c!
0^!
0[!
1D"
1A"
1>"
1;"
18"
14"
11"
1."
1+"
1("
1%"
1""
1}!
1z!
1w!
1t!
1q!
1n!
1k!
1h!
1e!
1b!
1]!
1Z!
#3562
1o"
1a#
1`#
#3644
1S!
1S#
1R#
#3693
0,!
0(!
#3720
0b"
#3739
0o
#3805
0u"
#3809
1a!
1`!
#3823
0j"
#3828
0&!
#3836
0/#
#3837
1;#
1c#
1b#
#3845
0u
0t"
#3868
0E
#4170
1U#
1T#
#4171
1-#
1h"
1P#
1O#
1_#
1^#
#4181
1L!
1Q#
#4311
06!
#4322
0=#
0q"
#4351
0G
#4636
0s#
0r#
#4718
0h#
0i#
#4739
0Y!
#4745
0U!
0N!
#4792
17"
#4883
0C
#4911
0u#
0t#
#5062
0C!
#5108
09!
#5206
0l"
#5225
0v#
0k"
#5240
1I#
#5244
0g#
#5245
0l#
0k#
0m#
0n#
#5248
1H#
#5255
1j#
#5267
1V
#5280
1R
0?#
#5294
0E!
#5316
0D!
0?!
#5320
0z
#5334
0B!
#5340
0:!
#5357
0n"
#5362
0=!
#5397
0w#
0m"
#5430
09#
#5445
0<!
#5449
00#
07#
#5467
03#
#5468
0\
0x#
06#
#5470
0`
#5507
0Z
#5511
1I!
#5523
01#
#5537
12#
#5551
1P
#5556
1c
#5563
0X
#5574
1&#
1$#
#5593
1T
1S
#5615
1/!
#5628
0A!
0>!
0I
#5651
05#
#5672
1F#
#5682
0G!
#5691
1U
0^
#5735
0e"
#5736
0H!
#5743
1:#
#5754
0o#
0d"
#5791
0g"
#5794
0C#
#5810
0)#
#5829
0d
#5831
0p#
0f"
#5834
0_
#5847
01!
#5866
0N
#5869
00!
#5871
0,#
#5911
0q#
0+#
#5912
18#
#5952
15!
#6006
0E#
#6010
04#
#6029
0b
#6046
0e
#6059
0;!
#6088
1'#
#6098
0A#
#6099
0@
#6128
1[
#6138
0]
#6144
1%#
#6184
1Y
#6188
1B#
#6193
0G#
#6200
1N#
#6207
1g
#6226
1p!
0-!
#6233
0Q
#6235
0F!
#6240
1W
#6245
0B
#6254
0?
#6283
13!
1H
#6337
18!
#6356
1@!
#6362
0R!
#6377
1_!
#6402
0L
0Q!
#6481
1*#
#6536
0@#
#6555
0a
#6563
0$"
#6592
00"
#6616
0D#
#6629
0|!
#6635
0f
#6640
0K!
#6649
0W!
#6650
1(#
#6680
0J
0J!
#6689
0M
0V!
#6716
1g!
#6770
0*!
#6810
0F
0)!
#6832
0v!
#6876
0%!
#6890
17!
#6895
0D
0$!
#6909
1A
#7092
0="
#7142
0-"
#7214
1j!
#7266
1P!
#7285
1K
1O!
#7305
0\!
#7312
1m!
#7339
0*"
#7351
0@"
#7357
1:"
#7409
06"
#7434
1d!
#7471
0'"
#7514
03"
#7530
1F"
#7638
1y!
#7815
15
#7878
1!"
#7966
1:
#8152
0(
#8181
0&
#8218
0)
#8305
18
#8421
0*
#8649
0C"
#8681
0.
#8698
1s!
#8731
00
#8803
17
#8894
0;
#8901
16
#8928
0'
#8940
0-
#8946
1$
#8998
0%
#9023
19
#9060
01
#9103
0/
#9119
1+
#9227
13
#9467
12
#10000
1#
#10238
0,
#10287
14
#10772
1G"
#10832
1h
#11203
1`"
#20000
0#
#20772
0G"
#20832
0h
#21203
0`"
#30000
1#
#30772
1G"
#30832
1h
#31203
1`"
#40000
0#
#40772
0G"
#40832
0h
#41203
0`"
0K"
#50000
1#
#50772
1G"
#50832
1h
#51203
1`"
#60000
0#
#60772
0G"
#60832
0h
#61203
0`"
#70000
1#
#70772
1G"
#70832
1h
#71203
1`"
#80000
0#
#80772
0G"
#80832
0h
#81203
0`"
#90000
1#
#90772
1G"
#90832
1h
#91203
1`"
#100000
0!
0#
0"!
#100772
0H"
0G"
#100832
0i
0h
#101203
0`"
#101603
0]#
0Y#
#101660
0"#
0v"
#104792
07"
0\#
0[#
0Z#
0X#
0W#
0V#
#110000
1#
#110772
1G"
#110832
1h
#111203
1`"
#120000
0#
#120772
0G"
#120832
0h
#121203
0`"
#130000
1#
#130772
1G"
#130832
1h
#131203
1`"
#140000
0#
#140772
0G"
#140832
0h
#141203
0`"
#150000
1#
#150772
1G"
#150832
1h
#151203
1`"
#160000
0#
#160772
0G"
#160832
0h
#161203
0`"
#170000
1#
#170772
1G"
#170832
1h
#171203
1`"
#180000
0#
#180772
0G"
#180832
0h
#181203
0`"
#190000
1#
#190772
1G"
#190832
1h
#191203
1`"
#200000
0#
#200772
0G"
#200832
0h
#201203
0`"
#210000
1#
#210772
1G"
#210832
1h
#211203
1`"
#220000
0#
#220772
0G"
#220832
0h
#221203
0`"
#230000
1#
#230772
1G"
#230832
1h
#231203
1`"
#240000
0#
#240772
0G"
#240832
0h
#241203
0`"
#250000
1#
#250772
1G"
#250832
1h
#251203
1`"
1W"
1l
#251902
1=
#252582
1+!
1'!
#252584
1T!
1M!
#252586
1X!
#252590
1.#
1i"
#252603
1M#
1##
1{"
1w"
#252604
1<#
1p"
#252973
0>
1x
#253411
0L#
#253451
0{
#253474
0!#
#253484
1!#
#253573
0>#
#253592
0q
#253801
0o"
0a#
0`#
#253853
1_"
#253883
0S!
0S#
0R#
#254048
0a!
0`!
#254076
0;#
0c#
0b#
#254409
0U#
0T#
#254410
0-#
0h"
0P#
0O#
0_#
0^#
#254420
0L!
0Q#
#256203
1V"
1Z"
0W"
#260000
0#
#260772
0G"
#260832
0h
#261203
0`"
1Y"
0V"
0l
#261902
0=
#262582
0+!
0'!
#262584
0T!
0M!
#262586
0X!
#262590
0.#
0i"
#262603
0M#
0##
0{"
0w"
#262604
0<#
0p"
#263853
0_"
#266203
1X"
0Z"
#270000
1#
#270772
1G"
#270832
1h
#271203
1`"
0Y"
1W"
1l
#271902
1=
#272582
1+!
1'!
#272584
1T!
1M!
#272586
1X!
#272590
1.#
1i"
#272603
1M#
1##
1{"
1w"
#272604
1<#
1p"
#273553
0W"
#273853
1_"
#276203
0X"
1V"
1Z"
#278553
0V"
0l
#279252
0=
#279932
0+!
0'!
#279934
0T!
0M!
